…
      filter(anaerobe == TRUE) %>% 
      pivot_longer(
        cols = contains("fastq"), 
        names_to = "sample", 
        values_to = "relative_abundance"
      ) %>% 
      group_by(sample) %>% 
      slice_max(relative_abundance, n = 2) %>% 
      left_join(taxonomic_table, by = "asv") %>% 
      left_join(sample_data, by = "sample") %>% 
      mutate_at(vars(distance_mm), as.numeric) %>% 
      arrange(horizon, distance_mm) %>% 
      select(horizon, distance_mm, Kingdom, Phylum, relative_abundance, asv)

    ## # A tibble: 30 × 7
    ## # Groups:   sample [15]
    ##    sample    horizon distance_mm Kingdom Phylum  relative_abunda… asv           
    ##    <chr>     <fct>         <dbl> <chr>   <chr>              <dbl> <chr>         
    ##  1 Yoko.12A… 1_Bh1           0.5 Archaea <NA>              0.0366 CGGTAGTCTAGGG…
    ##  2 Yoko.12A… 1_Bh1           0.5 Archaea Euryar…           0.0312 CGGTAGTCTAGGG…
    ##  3 Yoko.12A… 1_Bh1           2   Archaea <NA>              0.0380 CGGTAGTCTAGGG…
    ##  4 Yoko.12A… 1_Bh1           2   Archaea Euryar…           0.0239 CGGTAGTCTAGGG…
    ##  5 Yoko.12A… 1_Bh1           4   Archaea <NA>              0.0356 CGGTAGTCTAGGG…
    ##  6 Yoko.12A… 1_Bh1           4   Archaea Euryar…           0.0214 CGGTAGTCTAGGG…
    ##  7 Yoko.12A… 1_Bh1           6   Archaea <NA>              0.0530 CGGTAGTCTAGGG…
    ##  8 Yoko.12A… 1_Bh1           6   Archaea Euryar…           0.0321 CGGTAGTCTAGGG…
    ##  9 Yoko.12A… 1_Bh1          10   Archaea <NA>              0.0609 CGGTAGTCTAGGG…
    ## 10 Yoko.12A… 1_Bh1          10   Archaea Euryar…           0.0371 CGGTAGTCTAGGG…
    ## # … with 20 more rows
…
